{
  "variables": {
    "aws_access_key": "",
    "aws_secret_key": "",
    "aws_vpc_id": "",
    "aws_subnet_id": "",
    "aws_region": "eu-west-1"
  },
  "builders": [{
    "type": "amazon-windows-ebs",
    "region": "{{ user `aws_region` }}",
    "access_key": "{{user `aws_access_key`}}",
    "secret_key": "{{user `aws_secret_key`}}",
    "vpc_id": "{{user `aws_vpc_id`}}",
    "subnet_id": "{{user `aws_subnet_id`}}",
    "source_ami": "ami-032b4b74",
    "instance_type": "t2.medium",
    "ami_name": "gocd agent {{ timestamp }}",
    "user_data_file": "packer/amz.userdata",
    "winrm_username": "packer",
    "winrm_password": "Password2015@",
    "winrm_wait_timeout": "30m",
    "winrm_port": 5985,
    "ami_block_device_mappings": [{
      "device_name": "/dev/sda1",
      "delete_on_termination": true
    }],
    "launch_block_device_mappings": [{
      "device_name": "/dev/sda1",
      "delete_on_termination": true
    }],
    "run_tags": {
      "Name": "Packer Builder (Windows 2012 R2)"
    },
    "tags": {
      "Name": "Windows 2012 R2"
    }
  }],
  "provisioners": [
    {
    "type": "powershell",
    "scripts": [
        "scripts/setup-gocd-agent-download.ps1"
    ]    
    },
    {
    "type": "windows-shell",
    "scripts": [
        "scripts/setup-gocd-agent-install.bat"
    ]    
    }
  ]
}
